smru RES batch fit
…
          % CV abundance             % CV density             CV abundance 
                   12200                     7999                   422331 
CV abundance and density               CV density             SE abundance 
                     119                   189400                       87 
              SE density               Squared CV    Variance of abundance 
                     342                      114                      122 
     Variance of density                     <NA> 
                     560                    12351 

# check that where there is not a single measure, we do have a CI
test <- rawSpecies %>% filter(is.na(Uncertainty_measure)) 

test %>% filter(!is.na(LowerCI))

# A tibble: 1,045 × 18
   Internal_reference     Survey Polygon Commonname Validname Family Class Order
   <chr>                  <chr>  <chr>   <chr>      <chr>     <chr>  <chr> <chr>
 1 071_Zoidis et al (202… NYB    NYB     Blue whale Balaenop… Balae… Mamm… Ceta…
 2 071_Zoidis et al (202… NYB    NYB     Blue whale Balaenop… Balae… Mamm… Ceta…
 3 071_Zoidis et al (202… NYB    NYB     Blue whale Balaenop… Balae… Mamm… Ceta…
 4 071_Zoidis et al (202… NYB    NYB     Blue whale Balaenop… Balae… Mamm… Ceta…
 5 071_Zoidis et al (202… NYB    NYB     Blue whale Balaenop… Balae… Mamm… Ceta…
 6 071_Zoidis et al (202… NYB    NYB     Blue whale Balaenop… Balae… Mamm… Ceta…
 7 071_Zoidis et al (202… NYB    NYB     Blue whale Balaenop… Balae… Mamm… Ceta…
 8 071_Zoidis et al (202… NYB    NYB     Blue whale Balaenop… Balae… Mamm… Ceta…
 9 071_Zoidis et al (202… NYB    NYB     Blue whale Balaenop… Balae… Mamm… Ceta…
10 071_Zoidis et al (202… NYB    NYB     Blue whale Balaenop… Balae… Mamm… Ceta…
# ℹ 1,035 more rows
# ℹ 10 more variables: RES <dbl>, Type <chr>, Partial_cell_area <dbl>,
#   Density <dbl>, Uncertainty <dbl>, Uncertainty_measure <chr>, LowerCI <dbl>,
#   UpperCI <dbl>, Location <chr>, Study_area <chr>
…
summary(speciesData$lowerError)

   Min. 1st Qu.  Median    Mean 3rd Qu.    Max.    NA's 
   -0.4     0.0     0.0     0.0     0.0     0.0  371848 

summary(speciesData$upperError)

   Min. 1st Qu.  Median    Mean 3rd Qu.    Max.    NA's 
   -3.1     0.0     0.0     0.0     0.0     2.4  371848 

speciesData %>% 
  mutate(errorRatio = abs(upperError)/UpperCI) %>% 
  filter(errorRatio > 2)

# A tibble: 645 × 26
   Internal_reference     Survey Polygon Commonname Validname Family Class Order
   <chr>                  <chr>  <chr>   <chr>      <chr>     <chr>  <chr> <chr>
 1 073_Fulling et al (20… MISTCS MISTCS  Bryde's w… Balaenop… Balae… Mamm… Ceta…
 2 073_Fulling et al (20… MISTCS MISTCS  Bryde's w… Balaenop… Balae… Mamm… Ceta…
 3 073_Fulling et al (20… MISTCS MISTCS  Bryde's w… Balaenop… Balae… Mamm… Ceta…
 4 073_Fulling et al (20… MISTCS MISTCS  Bryde's w… Balaenop… Balae… Mamm… Ceta…
 5 073_Fulling et al (20… MISTCS MISTCS  Bryde's w… Balaenop… Balae… Mamm… Ceta…
 6 073_Fulling et al (20… MISTCS MISTCS  Bryde's w… Balaenop… Balae… Mamm… Ceta…
 7 073_Fulling et al (20… MISTCS MISTCS  Bryde's w… Balaenop… Balae… Mamm… Ceta…
 8 073_Fulling et al (20… MISTCS MISTCS  Bryde's w… Balaenop… Balae… Mamm… Ceta…
 9 073_Fulling et al (20… MISTCS MISTCS  Bryde's w… Balaenop… Balae… Mamm… Ceta…
10 073_Fulling et al (20… MISTCS MISTCS  Bryde's w… Balaenop… Balae… Mamm… Ceta…
# ℹ 635 more rows
# ℹ 18 more variables: RES <dbl>, Type <chr>, Partial_cell_area <dbl>,
#   Density <dbl>, Uncertainty <dbl>, Uncertainty_measure <chr>, LowerCI <dbl>,
#   UpperCI <dbl>, Location <chr>, Study_area <chr>, workingSE <dbl>, CV <dbl>,
#   workingLowerCI <dbl>, workingUpperCI <dbl>, lowerError <dbl>,
#   upperError <dbl>, blockID <chr>, errorRatio <dbl>

speciesData %>% 
  filter(str_detect(Internal_reference, "Fulling"))

# A tibble: 645 × 25
   Internal_reference     Survey Polygon Commonname Validname Family Class Order
   <chr>                  <chr>  <chr>   <chr>      <chr>     <chr>  <chr> <chr>
 1 073_Fulling et al (20… MISTCS MISTCS  Bryde's w… Balaenop… Balae… Mamm… Ceta…
 2 073_Fulling et al (20… MISTCS MISTCS  Bryde's w… Balaenop… Balae… Mamm… Ceta…
 3 073_Fulling et al (20… MISTCS MISTCS  Bryde's w… Balaenop… Balae… Mamm… Ceta…
 4 073_Fulling et al (20… MISTCS MISTCS  Bryde's w… Balaenop… Balae… Mamm… Ceta…
 5 073_Fulling et al (20… MISTCS MISTCS  Bryde's w… Balaenop… Balae… Mamm… Ceta…
 6 073_Fulling et al (20… MISTCS MISTCS  Bryde's w… Balaenop… Balae… Mamm… Ceta…
 7 073_Fulling et al (20… MISTCS MISTCS  Bryde's w… Balaenop… Balae… Mamm… Ceta…
 8 073_Fulling et al (20… MISTCS MISTCS  Bryde's w… Balaenop… Balae… Mamm… Ceta…
 9 073_Fulling et al (20… MISTCS MISTCS  Bryde's w… Balaenop… Balae… Mamm… Ceta…
10 073_Fulling et al (20… MISTCS MISTCS  Bryde's w… Balaenop… Balae… Mamm… Ceta…
# ℹ 635 more rows
# ℹ 17 more variables: RES <dbl>, Type <chr>, Partial_cell_area <dbl>,
#   Density <dbl>, Uncertainty <dbl>, Uncertainty_measure <chr>, LowerCI <dbl>,
#   UpperCI <dbl>, Location <chr>, Study_area <chr>, workingSE <dbl>, CV <dbl>,
#   workingLowerCI <dbl>, workingUpperCI <dbl>, lowerError <dbl>,
#   upperError <dbl>, blockID <chr>
…
